^C:\USERS\MARCEL\DESKTOP\PHICOM\PROJECT_FILES\OPENGL_PROJECTS\CALIBRATION_PRESENTATION\CALIBRATION_PRESENTATION\DEBUG\CALIBRATION_PRESENTATION.OBJ
/OUT:"C:\USERS\MARCEL\DESKTOP\PHICOM\PROJECT_FILES\OPENGL_PROJECTS\CALIBRATION_PRESENTATION\DEBUG\CALIBRATION_PRESENTATION.EXE" /INCREMENTAL /NOLOGO /LIBPATH:"C:\USERS\MARCEL\DOCUMENTS\VISUAL STUDIO 2017\ERWEITERTE BIBLIOTHEKEN\OPENGL\FREEGLUT\LIB" /LIBPATH:"C:\USERS\MARCEL\DOCUMENTS\VISUAL STUDIO 2017\ERWEITERTE BIBLIOTHEKEN\OPENGL\GLEW\LIB" GLEW32.LIB FREEGLUT.LIB KERNEL32.LIB USER32.LIB GDI32.LIB WINSPOOL.LIB COMDLG32.LIB ADVAPI32.LIB SHELL32.LIB OLE32.LIB OLEAUT32.LIB UUID.LIB ODBC32.LIB ODBCCP32.LIB /MANIFEST /MANIFESTUAC:"level='asInvoker' uiAccess='false'" /manifest:embed /DEBUG:FASTLINK /PDB:"C:\USERS\MARCEL\DESKTOP\PHICOM\PROJECT_FILES\OPENGL_PROJECTS\CALIBRATION_PRESENTATION\DEBUG\CALIBRATION_PRESENTATION.PDB" /TLBID:1 /DYNAMICBASE /NXCOMPAT /IMPLIB:"C:\USERS\MARCEL\DESKTOP\PHICOM\PROJECT_FILES\OPENGL_PROJECTS\CALIBRATION_PRESENTATION\DEBUG\CALIBRATION_PRESENTATION.LIB" /MACHINE:X86 DEBUG\CALIBRATION_PRESENTATION.OBJ
^C:\USERS\MARCEL\DOCUMENTS\PHICOM\PROJECT_FILES\OPENGL_PROJECTS\CALIBRATION_PRESENTATION\CALIBRATION_PRESENTATION\DEBUG\CALIBRATION_PRESENTATION.OBJ
/OUT:"C:\USERS\MARCEL\DOCUMENTS\PHICOM\PROJECT_FILES\OPENGL_PROJECTS\CALIBRATION_PRESENTATION\DEBUG\CALIBRATION_PRESENTATION.EXE" /INCREMENTAL /NOLOGO /LIBPATH:"C:\USERS\MARCEL\DOCUMENTS\VISUAL STUDIO 2017\ERWEITERTE BIBLIOTHEKEN\OPENGL\FREEGLUT\LIB" /LIBPATH:"C:\USERS\MARCEL\DOCUMENTS\VISUAL STUDIO 2017\ERWEITERTE BIBLIOTHEKEN\OPENGL\GLEW\LIB" GLEW32.LIB FREEGLUT.LIB KERNEL32.LIB USER32.LIB GDI32.LIB WINSPOOL.LIB COMDLG32.LIB ADVAPI32.LIB SHELL32.LIB OLE32.LIB OLEAUT32.LIB UUID.LIB ODBC32.LIB ODBCCP32.LIB /MANIFEST /MANIFESTUAC:"level='asInvoker' uiAccess='false'" /manifest:embed /DEBUG:FASTLINK /PDB:"C:\USERS\MARCEL\DOCUMENTS\PHICOM\PROJECT_FILES\OPENGL_PROJECTS\CALIBRATION_PRESENTATION\DEBUG\CALIBRATION_PRESENTATION.PDB" /TLBID:1 /DYNAMICBASE /NXCOMPAT /IMPLIB:"C:\USERS\MARCEL\DOCUMENTS\PHICOM\PROJECT_FILES\OPENGL_PROJECTS\CALIBRATION_PRESENTATION\DEBUG\CALIBRATION_PRESENTATION.LIB" /MACHINE:X86 DEBUG\CALIBRATION_PRESENTATION.OBJ
